…
bica_out$summary
#> # A tibble: 242 × 10
#>    variable          mean  median      sd     mad      q5     q95  rhat ess_bulk
#>    <chr>            <dbl>   <dbl>   <dbl>   <dbl>   <dbl>   <dbl> <dbl>    <dbl>
#>  1 lp__           6.23e+3 6.23e+3 1.91e+0 1.74e+0 6.23e+3 6.24e+3  1.08     46.0
#>  2 alpha          4.98e+3 3.42e+3 4.72e+3 4.26e+3 1.72e+2 1.32e+4  1.25     14.2
#>  3 beta           4.66e-1 4.72e-1 4.21e-2 4.61e-2 3.96e-1 5.24e-1  1.13     28.2
#>  4 sigma          4.05e-1 3.96e-1 7.28e-2 7.74e-2 3.06e-1 5.36e-1  1.04    170. 
#>  5 mid            1.76e+2 1.76e+2 6.68e-2 6.38e-2 1.76e+2 1.76e+2  1.03    206. 
#>  6 shape          5.37e+0 5.37e+0 5.52e-2 5.22e-2 5.28e+0 5.45e+0  1.03    202. 
#>  7 sigma_logistic 6.48e-2 6.47e-2 9.28e-4 9.41e-4 6.33e-2 6.63e-2  1.02    169. 
#>  8 ln_run_size    1.01e+1 1.01e+1 1.42e-1 1.51e-1 9.84e+0 1.03e+1  1.05    164. 
#>  9 pred_pss[1]    1.08e+5 1.08e+5 7.16e+3 8.15e+3 9.75e+4 1.20e+5  1.05    140. 
#> 10 pred_pss[2]    9.81e+4 9.81e+4 6.39e+3 7.28e+3 8.83e+4 1.09e+5  1.04    144. 
#> # ℹ 232 more rows
#> # ℹ 1 more variable: ess_tail <dbl>
```
